{
  "IcoMoonType": "selection",
  "icons": [
    {
      "icon": {
        "paths": [
          "M49.583 594.567h276.749c44.086 0 66.237 53.302 35.032 84.561l-86.232 86.232c64.189 60.308 149.073 93.777 237.137 93.453 158.666-0.269 297.122-108.059 336.088-261.875 2.749-11.048 12.665-18.863 24.037-18.863h118.299c13.689 0 24.792 11.102 24.792 24.792-0.054 1.455-0.162 3.018-0.431 4.473-44.625 237.191-252.82 416.66-503.053 416.66-131.773 0.216-258.533-50.607-353.711-141.797l-73.674 73.674c-31.259 31.259-84.615 9.162-84.615-34.978v-276.803c0-27.379 22.205-49.529 49.583-49.529zM748.76 258.695c-64.135-60.362-149.073-93.831-237.083-93.507-158.774 0.216-297.176 108.059-336.141 261.928-2.695 11.102-12.611 18.863-24.037 18.863h-118.245c-13.689 0-24.792-11.156-24.792-24.792 0-1.455 0.162-2.964 0.431-4.473 44.625-237.245 252.928-416.714 503.107-416.714 131.773-0.162 258.533 50.607 353.657 141.797l73.782-73.728c31.205-31.205 84.561-9.108 84.561 35.032v276.749c0 27.379-22.205 49.583-49.583 49.583v0h-276.749c-44.14 0-66.237-53.356-35.032-84.615l86.124-86.124z"
        ],
        "attrs": [
          {}
        ],
        "isMulticolor": false,
        "isMulticolor2": false,
        "grid": 0,
        "tags": [
          "ico-assincronas"
        ]
      },
      "attrs": [
        {}
      ],
      "properties": {
        "order": 20,
        "id": 7,
        "name": "ico-assincronas",
        "prevSize": 32,
        "code": 59648
      },
      "setIdx": 0,
      "setId": 3,
      "iconIdx": 0
    },
    {
      "icon": {
        "paths": [
          "M423.863 146.286c163.255 0.219 295.57 132.535 295.717 295.863-0.146 163.255-132.462 295.57-295.717 295.79-163.328-0.146-295.643-132.535-295.863-295.79 0.219-163.328 132.535-295.643 295.863-295.863zM764.197 693.541c54.053-72.704 83.383-160.841 83.383-251.465-0.146-233.838-189.733-423.497-423.717-423.79-233.984 0.219-423.643 189.879-423.863 423.863 0.219 233.984 189.879 423.57 423.863 423.79 93.403 0 179.493-30.72 249.637-82.066l220.16 221.257c24.722 25.015 65.097 25.381 90.039 0.658 0.146-0.073 0.293-0.219 0.439-0.366 25.088-24.942 25.161-65.463 0.293-90.478 0-0.073-0.073-0.073-0.073-0.073l-220.16-221.33z",
          "M219.429 461.019c0 28.16 22.821 50.981 50.981 50.981s50.981-22.821 50.981-50.981c0-76.946 62.61-139.703 139.703-139.703 28.087-1.097 50.103-24.722 49.006-52.882-1.024-26.624-22.382-47.982-49.006-49.006-133.413 0.073-241.518 108.178-241.664 241.591z"
        ],
        "attrs": [
          {},
          {}
        ],
        "isMulticolor": false,
        "isMulticolor2": false,
        "grid": 0,
        "tags": [
          "ico-buscar"
        ]
      },
      "attrs": [
        {},
        {}
      ],
      "properties": {
        "order": 19,
        "id": 6,
        "name": "ico-buscar",
        "prevSize": 32,
        "code": 59649
      },
      "setIdx": 0,
      "setId": 3,
      "iconIdx": 1
    },
    {
      "icon": {
        "paths": [
          "M646.758 646.758c-196.362 151.020-420.495-73.155-269.517-269.517 196.362-150.979 420.536 73.155 269.517 269.517zM995.615 622.838l-79.831-38.38c9.257-47.964 9.257-97.239 0-145.121l79.831-38.38c23.429-13.107 33.587-41.533 23.757-66.519-21.135-55.296-61.44-106.086-99.82-150.364-18.104-20.398-48.046-25.436-71.885-12.124l-68.977 38.38c-38.625-31.785-82.739-56.32-130.13-72.458v-76.759c0-26.747-20.152-49.398-47.432-53.944-59.597-9.626-120.422-9.585-180.060 0.205-27.034 4.506-46.449 27.443-46.449 53.658v77.046c-47.432 16.015-91.546 40.591-130.171 72.458l-68.977-38.42c-23.921-13.23-54.313-8.192-71.844 12.124-38.42 44.36-78.971 95.109-100.065 150.405-9.708 24.904 0.983 53.043 24.904 66.314l78.93 38.584c-9.257 47.841-9.257 97.075 0 144.957l-78.93 38.38c-23.716 12.861-34.284 41.247-24.904 66.519 21.094 55.050 61.645 105.8 100.024 150.159 17.531 20.316 48.128 25.354 71.844 12.124l68.977-38.216c38.666 31.785 82.78 56.361 130.171 72.499v76.759c0 26.747 20.111 49.357 47.391 53.944 60.457 10.076 121.651 9.585 179.978 0 27.034-4.588 46.694-27.443 46.694-53.944v-76.8c47.432-16.056 91.546-40.55 130.13-72.458l68.977 38.42c24.003 13.23 54.313 8.192 71.885-12.083 38.42-44.36 79.872-95.109 100.966-150.405 9.38-25.313-1.229-53.699-24.986-66.56z"
        ],
        "attrs": [
          {}
        ],
        "isMulticolor": false,
        "isMulticolor2": false,
        "grid": 0,
        "tags": [
          "ico-config"
        ]
      },
      "attrs": [
        {}
      ],
      "properties": {
        "order": 18,
        "id": 5,
        "name": "ico-config",
        "prevSize": 32,
        "code": 59650
      },
      "setIdx": 0,
      "setId": 3,
      "iconIdx": 2
    },
    {
      "icon": {
        "paths": [
          "M457.070 33.646l-125.001 250.075-279.625 40.229c-50.103 7.168-70.217 68.169-33.865 103.131l202.313 194.56-47.835 274.725c-8.631 49.81 44.398 86.894 88.795 63.634l250.149-129.682 250.149 129.682c44.398 22.967 97.426-13.824 88.795-63.634l-47.835-274.798 202.313-194.56c36.352-34.889 16.238-95.89-33.865-103.131l-279.625-40.229-125.074-250.002c-22.382-44.617-87.259-45.129-109.787 0z"
        ],
        "attrs": [
          {}
        ],
        "isMulticolor": false,
        "isMulticolor2": false,
        "grid": 0,
        "tags": [
          "ico-favoritos"
        ]
      },
      "attrs": [
        {}
      ],
      "properties": {
        "order": 17,
        "id": 4,
        "name": "ico-favoritos",
        "prevSize": 32,
        "code": 59651
      },
      "setIdx": 0,
      "setId": 3,
      "iconIdx": 3
    },
    {
      "icon": {
        "paths": [
          "M650.476 673.713l20.322-25.994c16.778-21.662 12.918-52.775-8.586-69.632l-84.047-65.378v-215.434c0-27.333-22.134-49.546-49.546-49.546 0 0 0 0-0.079 0h-33.083c-27.412 0-49.546 22.213-49.546 49.546 0 0 0 0 0 0.079v280.025l135.089 104.999c21.583 16.778 52.775 12.918 69.474-8.665zM1024 511.055c0.551 282.073-229.534 512.788-511.606 512.945-117.051 0.236-230.636-39.857-321.694-113.349-21.268-17.329-24.497-48.443-7.168-69.711 1.024-1.418 2.127-2.599 3.308-3.781l23.316-23.316c17.723-17.881 46.001-19.614 65.851-4.096 67.111 53.327 150.292 82.235 235.993 82.156 209.684 0.079 379.746-169.748 379.904-379.431 0-0.158 0-0.315 0-0.473 0.079-209.684-169.748-379.746-379.431-379.904-0.158 0-0.315 0-0.473 0-100.825 0-192.276 39.227-260.254 103.188l104.763 104.763c12.839 12.997 12.682 33.95-0.315 46.789-6.144 6.065-14.415 9.452-23.001 9.531h-300.111c-18.274 0-33.083-14.809-33.083-33.083v0-300.032c0.079-18.196 14.966-33.004 33.241-32.926 8.665 0.079 17.014 3.466 23.158 9.61l101.927 101.849c204.485-195.348 528.62-187.943 723.889 16.542 90.821 94.996 141.548 221.342 141.785 352.729z"
        ],
        "attrs": [
          {}
        ],
        "isMulticolor": false,
        "isMulticolor2": false,
        "grid": 0,
        "tags": [
          "ico-historico"
        ]
      },
      "attrs": [
        {}
      ],
      "properties": {
        "order": 16,
        "id": 3,
        "name": "ico-historico",
        "prevSize": 32,
        "code": 59652
      },
      "setIdx": 0,
      "setId": 3,
      "iconIdx": 4
    },
    {
      "icon": {
        "paths": [
          "M528.023 0l-528.023 527.962 70.355 71.68 457.668-441.284 453.813 441.224 70.355-72.885-524.168-526.697z",
          "M192.994 579.524v388.457h227.509v-297.984h208.655v297.984h230.099v-392.192l-335.029-330.632-331.234 334.366z"
        ],
        "attrs": [
          {},
          {}
        ],
        "width": 1084,
        "isMulticolor": false,
        "isMulticolor2": false,
        "grid": 0,
        "tags": [
          "ico-home"
        ]
      },
      "attrs": [
        {},
        {}
      ],
      "properties": {
        "order": 15,
        "id": 2,
        "name": "ico-home",
        "prevSize": 32,
        "code": 59653
      },
      "setIdx": 0,
      "setId": 3,
      "iconIdx": 5
    },
    {
      "icon": {
        "paths": [
          "M621.445 652.042c-25.108 0-45.425 20.398-45.425 45.548v200.090c0 18.842-15.36 34.161-34.202 34.161h-416.604c-18.883 0-34.161-15.278-34.202-34.161v-749.732c0-18.842 15.319-34.161 34.161-34.161h416.563c18.801 0 34.161 15.319 34.161 34.161v182.108c0.819 25.149 21.75 44.933 46.94 44.155 24.084-0.737 43.459-20.070 44.155-44.155v-182.108c-0.123-69.1-56.115-125.092-125.215-125.174h-416.563c-69.1 0.082-125.133 56.074-125.215 125.174v749.732c0.082 69.14 56.074 125.092 125.174 125.215h416.563c69.14-0.082 125.133-56.074 125.256-125.215v-200.090c0-25.149-20.398-45.548-45.548-45.548z",
          "M1052.303 535.429c0.778-1.106 1.27-2.335 1.925-3.482 0.819-1.434 1.597-2.826 2.335-4.342 0.573-1.516 0.942-3.072 1.393-4.588 0.41-1.311 0.901-2.58 1.147-3.891 1.188-5.898 1.188-11.919 0-17.818-0.246-1.393-0.819-2.621-1.147-3.932-0.451-1.556-0.86-3.072-1.393-4.588-0.655-1.516-1.516-2.908-2.335-4.342-0.655-1.188-1.147-2.376-1.925-3.482-1.638-2.499-3.564-4.833-5.734-6.963l-203.489-203.571c-17.777-17.777-46.572-17.777-64.307 0s-17.777 46.531 0 64.307l125.87 125.952h-578.109c-25.149 0-45.507 20.357-45.507 45.507 0 25.108 20.398 45.466 45.507 45.466h578.109l-125.911 125.911c-17.777 17.777-17.777 46.572 0.041 64.307 17.777 17.777 46.572 17.777 64.307 0l203.571-203.489c2.171-2.212 4.096-4.506 5.775-7.004z"
        ],
        "attrs": [
          {},
          {}
        ],
        "width": 1065,
        "isMulticolor": false,
        "isMulticolor2": false,
        "grid": 0,
        "tags": [
          "ico-sair"
        ]
      },
      "attrs": [
        {},
        {}
      ],
      "properties": {
        "order": 14,
        "id": 1,
        "name": "ico-sair",
        "prevSize": 32,
        "code": 59654
      },
      "setIdx": 0,
      "setId": 3,
      "iconIdx": 6
    },
    {
      "icon": {
        "paths": [
          "M601.043 400.696c0 12.288 9.973 22.261 22.261 22.261s22.261-9.973 22.261-22.261l0.089-356.174c0-12.288-9.973-22.261-22.261-22.261-0.089 0-0.089 0-0.178 0h-356.085c-12.288 0-22.261 9.973-22.261 22.261s9.973 22.261 22.261 22.261h302.436l-540.806 540.761c-8.682 8.682-8.682 22.795 0 31.477 4.363 4.363 10.062 6.545 15.761 6.545s11.398-2.182 15.761-6.5l540.85-540.85-0.089 302.481z",
          "M950.717 384.935c-8.682-8.682-22.795-8.682-31.477 0l-540.806 540.806 0.089-302.436c0-12.288-9.973-22.261-22.261-22.261s-22.261 9.973-22.261 22.261l-0.089 356.085c0 0.223 0 0.445 0 0.668 0 0 0 0 0 0.045 0.089 2.805 0.668 5.476 1.692 7.969 0.979 2.404 2.449 4.63 4.319 6.634 0.178 0.045 0.045 0.045 0.045 0.045 0 0.045 0 0.045 0.045 0.045 0 0.045 0 0.045 0.045 0.045 0 0.045 0 0.045 0.045 0.045v0.045c0.223 0.045 0.045 0.045 0.045 0.045s0 0 0 0.045c0 0 0 0 0 0l0.089 0.089c0 0 0 0.045 0.045 0.045s0 0.045 0.045 0.045c0.134 0 0 0.045 0.045 0.045 0 0 0 0 0 0.045v0c0 0.045 0 0.089 0.045 0.045 0 0 0 0.045 0.045 0.045s0 0.045 0.045 0.045c0.134-0.045 0 0.045 0.045 0.045 0.089 0.134 0.045 0.045 0.045 0.045v0c0 0.045 0 0.045 0.045 0.045 0 0.045 0 0.045 0.045 0.045l0.045 0.045c0 0 0 0.045 0 0.045v0c0 0.045 0 0.045 0 0.045s0 0 0 0v0.045c2.003 1.87 4.319 3.339 6.723 4.319s5.031 1.603 7.791 1.692c0 0 0.045 0 0.045 0s0.045 0 0.045 0v0c0.178 0 0.356 0 0.579 0 0 0 0.045 0 0.045 0h356.397c12.288 0 22.261-9.973 22.261-22.261s-9.973-22.261-22.261-22.261h-302.436l540.806-540.806c8.682-8.726 8.682-22.795 0-31.521z"
        ],
        "attrs": [
          {},
          {}
        ],
        "width": 979,
        "isMulticolor": false,
        "isMulticolor2": false,
        "grid": 0,
        "tags": [
          "ico-trocar-orgao"
        ]
      },
      "attrs": [
        {},
        {}
      ],
      "properties": {
        "order": 13,
        "id": 0,
        "name": "ico-trocar-orgao",
        "prevSize": 32,
        "code": 59655
      },
      "setIdx": 0,
      "setId": 3,
      "iconIdx": 7
    }
  ],
  "height": 1024,
  "metadata": {
    "name": "icomoon"
  },
  "preferences": {
    "showGlyphs": true,
    "showQuickUse": true,
    "showQuickUse2": true,
    "showSVGs": true,
    "fontPref": {
      "prefix": "icon-",
      "metadata": {
        "fontFamily": "icomoon"
      },
      "metrics": {
        "emSize": 1024,
        "baseline": 6.25,
        "whitespace": 50
      },
      "embed": false
    },
    "imagePref": {
      "prefix": "icon-",
      "png": true,
      "useClassSelector": true,
      "color": 0,
      "bgColor": 16777215,
      "classSelector": ".icon"
    },
    "historySize": 50,
    "showCodes": true,
    "gridSize": 16
  }
}