<svg xmlns="http://www.w3.org/2000/svg" width="19" height="22" viewBox="0 0 19 22">
    <path fill="#FEFEFE" fill-rule="evenodd" d="M13.3 12h-.708a7.08 7.08 0 0 1-3.092.714A7.094 7.094 0 0 1 6.408 12H5.7C2.553 12 0 14.687 0 18v1.857C0 21.04.912 22 2.036 22h14.928C18.088 22 19 21.04 19 19.857V18c0-3.313-2.553-6-5.7-6m-3.8-1a5.5 5.5 0 1 0 0-11 5.5 5.5 0 0 0 0 11"/>
</svg>
